{
	"shared_secret": "AXMfLo/YkUjIB9vo0oD4uaX3ImA=",
	"serial_number": "7306295012265713612",
	"revocation_code": "R77408",
	"uri": "otpauth://totp/Steam:avnishaggarwal?secret=AFZR6LUP3CIURSAH3PUNFAHYXGS7OITA&issuer=Steam",
	"server_time": "1453912678",
	"account_name": "avnishaggarwal",
	"token_gid": "9ad4d1ba65ba6b8",
	"identity_secret": "/3NmfkxaIp6y9Gq3eKuOjNfvvb8=",
	"secret_1": "+xg48VG/3SQ+5xy0Q8EU0rxSnnc=",
	"status": 1
}